{
  "version": "12.1.1",
  "defaulttheme": "default",
  "website": {
    "port": 8000,
    "secret": "Default Secret (Change this)"
  },
  "pterodactyl": {
    "domain": "https://panel.woodnodes.tk/",
    "key": "ioKHqADWDYPlyXWBdqc2v0b8huBBmqROWoEUhYmuN8XJLMGF"
  },
  "linkvertise": {
    "userid": 00000,
    "coins": 2
  },
  "database": "sqlite://database.sqlite",
  "api": {
    "client": {
      "api": {
        "enabled": true,
        "code": "Default API Key (Change this)"
      },
      "j4r": {
        "enabled": true,
        "ads": [
          {
            "name": "Example server 1",
            "invite": "https://discord.gg/example",
            "id": "000000000000000000",
            "coins": 100
          },
          {
            "name": "Example server 2",
            "invite": "https://discord.gg/example",
            "id": "000000000000000000",
            "coins": 200
          }
        ]
      },
      "bot": {
        "token": "Discord bot token here",
        "joinguild": {
          "_comment": "The Discord bot must be in these servers and have invite permissions.",
          "enabled": false,
          "guildid": [
            "Guild ID 1"
          ]
        }
      },
      "passwordgenerator": {
        "signup": true,
        "note": "Use this to disable signups",
        "length": 16
      },
      "allow": {
        "newusers": true,
        "regen": true,
        "server": {
          "create": true,
          "modify": true,
          "delete": true
        },
        "overresourcessuspend": false
      },
      "oauth2": {
        "_comment": "Go to https://discord.dev/ and create an application to set these up.",
        "id": "ID",
        "secret": "Secret",
        "link": "http://example.sryden.cloud:8000",
        "callbackpath": "/callback",
        "prompt": true,
        "ip": {
          "trust x-forwarded-for": true,
          "block": [],
          "duplicate check": true
        }
      },
      "ratelimits": {
        "/callback": 2,
        "/create": 1,
        "/delete": 1,
        "/modify": 1,
        "/updateinfo": 1,
        "/setplan": 2,
        "/admin": 1,
        "/regen": 1,
        "/renew": 1,
        "/api/userinfo": 1
      },
      "packages": {
        "default": "default",
        "list": {
          "default": {
            "ram": 1024,
            "disk": 1024,
            "cpu": 100,
            "servers": 1
          }
        },
        "rolePackages": {
          "note": "This allows you to set a different plan to people who have a specific role however this requires the Discord bot to be configured and functioning",
          "roleServer": "955401031532032000",
          "roles": {
            "964167446347010119": "default"
          }
        }
      },
      "locations": {
        "1": {
          "name": "Default Location",
          "package": null
        }
      },
      "eggs": {
       "paper": {
          "display": "Minecraft Java | Paper/Spigot",
          "minimum": {
            "ram": 1024,
            "disk": 1024,
            "cpu": 100
          },
          "maximum": {
            "ram": null,
            "disk": null,
            "cpu": null
          },
          "info": {
            "egg": 3,
            "docker_image": "ghcr.io/pterodactyl/yolks:java_17",
            "startup": "java -Xms128M -Xmx{{SERVER_MEMORY}}M -Dterminal.jline=false -Dterminal.ansi=true -jar {{SERVER_JARFILE}}",
            "environment": {
              "SERVER_JARFILE": "server.jar",
              "BUILD_NUMBER": "latest"
            },
            "feature_limits": {
              "databases": 4,
              "backups": 4
            }
          }
        },
        "bungeecord": {
          "display": "Minecraft Java | BungeeCord",
          "minimum": {
            "ram": 512,
            "disk": 512,
            "cpu": 75
          },
          "maximum": {
            "ram": null,
            "disk": null,
            "cpu": null
          },
          "info": {
            "egg": 1,
            "docker_image": "ghcr.io/pterodactyl/yolks:java_17",
            "startup": "java -Xms128M -Xmx{{SERVER_MEMORY}}M -jar {{SERVER_JARFILE}}",
            "environment": {
              "SERVER_JARFILE": "bungeecord.jar",
              "BUNGEE_VERSION": "latest"
            },
            "feature_limits": {
              "databases": 4,
              "backups": 4
            }
          }
        },
        "pmmp": {
          "display": "Minecraft Bedrock | Pocketmine",
          "note": "Please upload the Pocketmine egg from the parkervcp egg repo to the panel, then change the egg ID to the ID of the uploaded egg.",
          "minimum": {
            "ram": 512,
            "disk": 512,
            "cpu": 75
          },
          "maximum": {
            "ram": null,
            "disk": null,
            "cpu": null
          },
          "info": {
            "egg": 19,
            "docker_image": "quay.io/parkervcp/pterodactyl-images:base_debian",
            "startup": "./bin/php7/bin/php ./PocketMine-MP.phar --no-wizard --disable-ansi",
            "environment": {
              "GITHUB_PACKAGE": "pmmp/PocketMine-MP",
              "MATCH": "PocketMine-MP.phar",
              "VERSION": "latest"
            },
            "feature_limits": {
              "databases": 4,
              "backups": 4
            }
          }
        },
        "bedrock": {
          "display": "Minecraft Bedrock | Vanilla",
          "note": "Please upload the Vanilla egg from the parkervcp egg repo to the panel, then change the egg ID to the ID of the uploaded egg.",
          "minimum": {
            "ram": 512,
            "disk": 512,
            "cpu": 75
          },
          "maximum": {
            "ram": null,
            "disk": null,
            "cpu": null
          },
          "info": {
            "egg": 18,
            "docker_image": "quay.io/parkervcp/pterodactyl-images:base_debian",
            "startup": "./bedrock_server",
            "environment": {
              "SERVERNAME": "Bedrock Server",
              "GAMEMODE": "survival",
              "DIFFICULTY": "easy",
              "CHEATS": "true",
              "LD_LIBRARY_PATH": ".",
              "BEDROCK_VERSION": "latest"
            },
            "feature_limits": {
              "databases": 4,
              "backups": 4
            }
          }
        }
      },
      "coins": {
        "enabled": true,
        "store": {
          "_comment": "The cost and per is not intended to used with 0. This is not intended to sell resources for coins. Make sure coins are enabled too, or else there can be errors.",
          "enabled": true,
          "ram": {
            "cost": 100,
            "per": 100
          },
          "disk": {
            "cost": 100,
            "per": 100
          },
          "cpu": {
            "cost": 100,
            "per": 100
          },
          "servers": {
            "cost": 100,
            "per": 100
          }
        }
      }
    },
    "arcio": {
      "_comment": "You can make an arc.io widget on https://arc.io. You can get money using arc.io.",
      "enabled": true,
      "widgetid": "none",
      "afk page": {
        "_comment": "This will not effect any current arc.io sessions, and will require a restart to kick everyone out of the websocket sesison.",
        "_comment2": "Make sure coins are enabled if you choose to enable this option!",
        "enabled": true,
        "_comment3": "If you change the path, you need to restart for it to take full effect.",
        "path": "afkwspath",
        "_comment4": "This afk page will give the users [coins variable] coins every [every variable] seconds.",
        "every": 15,
        "_comment5": "The coins variable is meant to not be under 1. There may be bugs if the coins variable is less than 1.",
        "coins": 0.10
      }
    }
  },
  "whitelist": {
    "note": "This allows only specific people to be able to use the dashboard",
    "status": false,
    "users": [
      "User ID"
    ]
  },
  "renewals": {
    "note": "The cost is the amount of coins required to renew, and the delay is the amount of days before they need to renew",
    "status": false,
    "cost": 150,
    "delay": 14
  },
  "logging": {
    "status": false,
    "webhook": "Webhook URL",
    "actions": {
      "user": {
        "signup": true,
        "create server": true,
        "gifted coins": true,
        "modify server": true,
        "buy servers": true,
        "buy ram": true,
        "buy cpu": true,
        "buy disk": true
      }, 
      "admin": {
        "set coins": true,
        "add coins": true,
        "set resources": true,
        "set plan": true,
        "create coupon": true,
        "revoke coupon": true,
        "remove account": true,
        "view ip": true
      }
    }
  },
  "antivpn": {
    "note": "For antivpn to work, generate an apikey on https://proxycheck.io/. If you put no key, Heliactyl will disable antigen.",
    "status": false,
    "APIKey": "Proxycheck APIKey",
    "whitelistedIPs": ["IP address"]
  }
}
